Spatial data wrangling in R
…
If you need to reload the data at any point you should use these new files and not the originals. The new projected coordinates are only made permanent when we write the data out to the file system like this.

Filtering data by attribute and spatially

There’s a lot to get through in this section.

Narrowing things down with a filter operation

The all of Aotearoa census dataset is kind of a pain to work with, so the first thing we should do is ditch a bunch of it with a filter operation. Take a look at the data

as_tibble(sa2_2193)

## # A tibble: 2,155 × 5
##    sa2_id sa2_name             pop ta_name                                  geom
##    <chr>  <chr>              <int> <chr>                      <MULTIPOLYGON [m]>
##  1 100100 North Cape          1602 Far North District (((1613644 6146464, 16131…
##  2 100200 Rangaunu Harbour    2310 Far North District (((1627571 6125119, 16272…
##  3 100400 Karikari Peninsula  1251 Far North District (((1637408 6130041, 16371…
##  4 100500 Tangonge            1134 Far North District (((1623515 6119585, 16221…
##  5 100600 Ahipara             1230 Far North District (((1611227 6107044, 16112…
##  6 100700 Kaitaia East        2388 Far North District (((1625103 6113415, 16250…
##  7 100800 Kaitaia West        3483 Far North District (((1625103 6113415, 16246…
##  8 100900 Rangitihi            936 Far North District (((1629318 6117971, 16292…
##  9 101000 Oruru-Parapara       846 Far North District (((1642071 6127725, 16418…
## 10 101100 Taumarumaru         2193 Far North District (((1649200 6126270, 16491…
## # … with 2,145 more rows
…
